<?xml version="1.0" encoding="UTF-8"?>
<svg width="675px" height="92px" viewBox="0 0 675 92" version="1.1" xmlns="http://www.w3.org/2000/svg" xmlns:xlink="http://www.w3.org/1999/xlink">
    <title>Artboard</title>
    <defs>
        <linearGradient x1="50%" y1="-2.48949813e-15%" x2="50%" y2="100%" id="linearGradient-1">
            <stop stop-color="#C7E7F5" offset="0%"></stop>
            <stop stop-color="#95CAE7" offset="52.1170236%"></stop>
            <stop stop-color="#3C4B55" offset="55.6408435%"></stop>
            <stop stop-color="#3C4B55" offset="100%"></stop>
        </linearGradient>
        <linearGradient x1="50%" y1="-2.48949813e-15%" x2="50%" y2="100%" id="linearGradient-2">
            <stop stop-color="#C7E7F5" offset="0%"></stop>
            <stop stop-color="#95CAE7" offset="52.1170236%"></stop>
            <stop stop-color="#3C4B55" offset="55.6408435%"></stop>
            <stop stop-color="#3C4B55" offset="100%"></stop>
        </linearGradient>
        <path d="M36.5,0.5 L0.5,0.5" id="path-3"></path>
        <filter x="-21.6%" y="-600.0%" width="143.2%" height="1700.0%" filterUnits="objectBoundingBox" id="filter-4">
            <feMorphology radius="1.5" operator="dilate" in="SourceAlpha" result="shadowSpreadOuter1"></feMorphology>
            <feOffset dx="0" dy="2" in="shadowSpreadOuter1" result="shadowOffsetOuter1"></feOffset>
            <feMorphology radius="1.5" operator="erode" in="SourceAlpha" result="shadowInner"></feMorphology>
            <feOffset dx="0" dy="2" in="shadowInner" result="shadowInner"></feOffset>
            <feComposite in="shadowOffsetOuter1" in2="shadowInner" operator="out" result="shadowOffsetOuter1"></feComposite>
            <feGaussianBlur stdDeviation="2" in="shadowOffsetOuter1" result="shadowBlurOuter1"></feGaussianBlur>
            <feColorMatrix values="0 0 0 0 0   0 0 0 0 0   0 0 0 0 0  0 0 0 0.5 0" type="matrix" in="shadowBlurOuter1"></feColorMatrix>
        </filter>
        <path d="M25.5,23.5 L0.5,23.5" id="path-5"></path>
        <filter x="-30.8%" y="-600.0%" width="161.5%" height="1700.0%" filterUnits="objectBoundingBox" id="filter-6">
            <feMorphology radius="1.5" operator="dilate" in="SourceAlpha" result="shadowSpreadOuter1"></feMorphology>
            <feOffset dx="0" dy="2" in="shadowSpreadOuter1" result="shadowOffsetOuter1"></feOffset>
            <feMorphology radius="1.5" operator="erode" in="SourceAlpha" result="shadowInner"></feMorphology>
            <feOffset dx="0" dy="2" in="shadowInner" result="shadowInner"></feOffset>
            <feComposite in="shadowOffsetOuter1" in2="shadowInner" operator="out" result="shadowOffsetOuter1"></feComposite>
            <feGaussianBlur stdDeviation="2" in="shadowOffsetOuter1" result="shadowBlurOuter1"></feGaussianBlur>
            <feColorMatrix values="0 0 0 0 0   0 0 0 0 0   0 0 0 0 0  0 0 0 0.5 0" type="matrix" in="shadowBlurOuter1"></feColorMatrix>
        </filter>
        <path d="M36.5,46.5 L0.5,46.5" id="path-7"></path>
        <filter x="-21.6%" y="-600.0%" width="143.2%" height="1700.0%" filterUnits="objectBoundingBox" id="filter-8">
            <feMorphology radius="1.5" operator="dilate" in="SourceAlpha" result="shadowSpreadOuter1"></feMorphology>
            <feOffset dx="0" dy="2" in="shadowSpreadOuter1" result="shadowOffsetOuter1"></feOffset>
            <feMorphology radius="1.5" operator="erode" in="SourceAlpha" result="shadowInner"></feMorphology>
            <feOffset dx="0" dy="2" in="shadowInner" result="shadowInner"></feOffset>
            <feComposite in="shadowOffsetOuter1" in2="shadowInner" operator="out" result="shadowOffsetOuter1"></feComposite>
            <feGaussianBlur stdDeviation="2" in="shadowOffsetOuter1" result="shadowBlurOuter1"></feGaussianBlur>
            <feColorMatrix values="0 0 0 0 0   0 0 0 0 0   0 0 0 0 0  0 0 0 0.5 0" type="matrix" in="shadowBlurOuter1"></feColorMatrix>
        </filter>
        <text id="text-9" font-family="UniversLTStd-BoldObl, Univers LT Std" font-size="24" font-style="italic" font-weight="bold" line-spacing="28" fill="#FFFFFF">
            <tspan x="520" y="21">FULFILMENT</tspan>
            <tspan x="520" y="49">SERVICES </tspan>
            <tspan x="520" y="77">LTD.</tspan>
        </text>
        <filter x="-4.7%" y="-6.0%" width="111.3%" height="116.7%" filterUnits="objectBoundingBox" id="filter-10">
            <feOffset dx="0" dy="2" in="SourceAlpha" result="shadowOffsetOuter1"></feOffset>
            <feGaussianBlur stdDeviation="2" in="shadowOffsetOuter1" result="shadowBlurOuter1"></feGaussianBlur>
            <feColorMatrix values="0 0 0 0 0   0 0 0 0 0   0 0 0 0 0  0 0 0 0.5 0" type="matrix" in="shadowBlurOuter1"></feColorMatrix>
        </filter>
    </defs>
    <g id="Artboard" stroke="none" stroke-width="1" fill="none" fill-rule="evenodd">
        <g id="Group" transform="translate(47.000000, 1.000000)">
            <path d="M44.7513812,89.5027624 C69.4889503,89.5027624 89.5027624,69.4889503 89.5027624,44.7513812 C89.5027624,20.0138122 69.4889503,-4.97379915e-14 44.7513812,-4.97379915e-14 C20.0138122,-4.97379915e-14 1.84741111e-13,20.0138122 1.84741111e-13,44.7513812 C1.84741111e-13,69.4889503 20.0138122,89.5027624 44.7513812,89.5027624 Z" id="Path" fill="#ECECEC"></path>
            <path d="M44.7513812,89.5027624 C69.4889503,89.5027624 89.5027624,69.4889503 89.5027624,44.7513812 C89.5027624,20.0138122 69.4889503,-4.97379915e-14 44.7513812,-4.97379915e-14 C20.0138122,-4.97379915e-14 1.84741111e-13,20.0138122 1.84741111e-13,44.7513812 C1.84741111e-13,69.4889503 20.0138122,89.5027624 44.7513812,89.5027624 Z" id="Path" stroke="#95CAE7" stroke-width="2"></path>
            <path d="M44.7513812,89.5027624 C61.4088398,89.5027624 74.5856354,69.8618785 74.5856354,44.7513812 C74.5856354,18.5220994 60.7872928,-4.97379915e-14 44.7513812,-4.97379915e-14 C28.0939227,-4.97379915e-14 14.9171271,19.640884 14.9171271,44.7513812 C14.9171271,69.8618785 28.0939227,89.5027624 44.7513812,89.5027624 Z" id="Path" stroke="#95CAE7" stroke-width="2"></path>
            <line x1="0.061641021" y1="44.7513812" x2="14.8554861" y2="44.7513812" id="Line" stroke="#95CAE7" stroke-width="2" stroke-linecap="square"></line>
            <line x1="74.6472764" y1="44.7513812" x2="89.4411214" y2="44.7513812" id="Line-Copy" stroke="#95CAE7" stroke-width="2" stroke-linecap="square"></line>
            <path d="M84.0331492,22.6243094 L5.46961326,22.6243094 L84.0331492,22.6243094 Z" id="Path" stroke="#95CAE7" stroke-width="2"></path>
            <path d="M84.0331492,67.3756906 L5.46961326,67.3756906 L84.0331492,67.3756906 Z" id="Path" stroke="#95CAE7" stroke-width="2"></path>
            <path d="M45.2486188,89.5027624 C39.6700425,89.5027624 34.8734866,80.6092308 32.320442,67.1270718" id="Path" stroke="#95CAE7" stroke-width="2"></path>
            <path d="M32.320442,22.3756906 C34.8542721,8.9030414 39.6573713,-6.92779167e-14 45.2486188,-6.92779167e-14" id="Path" stroke="#95CAE7" stroke-width="2"></path>
            <path d="M44.7513812,89.5027624 C50.3316701,89.5027624 55.1291096,80.6079425 57.679558,67.1270718" id="Path" stroke="#95CAE7" stroke-width="2"></path>
            <path d="M57.679558,22.3756906 C55.147602,8.9039658 50.3438641,-6.92779167e-14 44.7513812,-6.92779167e-14" id="Path" stroke="#95CAE7" stroke-width="2"></path>
            <g id="Group-2" transform="translate(31.823204, 27.348066)" fill="#3C4B55" fill-rule="nonzero">
                <polygon id="Path" points="7.61777068 8.58853936 7.61777068 4.92068105 19.9136805 4.92068105 19.9136805 3.78654066 7.61777068 3.78654066 7.61777068 1.51825986 20.1540697 1.51825986 20.1540697 0.384119466 6.35572716 0.384119466 6.35572716 8.58853936"></polygon>
                <path d="M22.5432022,21.6410255 C24.4490812,21.6410255 25.7479924,20.8228882 25.7479924,19.2672748 C25.7479924,17.7001385 24.509778,16.9050472 22.7981287,16.9050472 L3.37515806,16.9050472 C2.20977983,16.9050472 1.69992685,16.5478323 1.69992685,15.7181719 C1.69992685,14.9576498 2.37973082,14.5197734 3.33873999,14.5197734 L22.7617106,14.5197734 C23.6964411,14.5197734 24.4976386,14.8654653 25.0439097,15.2572494 L25.0439097,13.9897126 C24.4005238,13.6324977 23.5386294,13.4366057 22.7617106,13.4366057 L3.33873999,13.4366057 C1.68778749,13.4366057 0.38887633,14.3008353 0.38887633,15.7181719 C0.38887633,17.3890158 1.62709071,17.988215 3.20520707,17.988215 L22.6281777,17.988215 C23.9270889,17.988215 24.4369418,18.4606605 24.4369418,19.2672748 C24.4369418,20.050843 23.7814166,20.5578577 22.5432022,20.5578577 L3.12023157,20.5578577 C2.05196819,20.5578577 1.1536558,20.0969353 0.60738475,19.6475359 L0.60738475,20.9496418 C1.27504937,21.3875182 2.2461979,21.6410255 3.12023157,21.6410255 L22.5432022,21.6410255 Z" id="Path"></path>
                <polygon id="Path" points="20.1540697 34.6935117 20.1540697 33.5593713 7.60687221 33.5593713 7.60687221 26.4890918 6.35572716 26.4890918 6.35572716 34.6935117"></polygon>
            </g>
            <line x1="45" y1="0.497237569" x2="45" y2="21.878453" id="Path-2" stroke="#95CAE7" stroke-width="2"></line>
            <line x1="45" y1="68.121547" x2="45" y2="89.5027624" id="Path-2-Copy" stroke="#95CAE7" stroke-width="2"></line>
        </g>
        <g id="Group-18" transform="translate(238.000000, 1.000000)" fill-rule="nonzero">
            <path d="M81.2861883,0 C95.7285481,0 107.436394,11.7250018 107.436394,26.1885246 C107.436394,40.6520473 95.7285481,52.3770492 81.2861883,52.3770492 C66.8438284,52.3770492 55.1359825,40.6520473 55.1359825,26.1885246 C55.1359825,11.7250018 66.8438284,0 81.2861883,0 Z M81.2861883,2.66323979 C68.312543,2.66323979 57.7953255,13.1958686 57.7953255,26.1885246 C57.7953255,39.1811806 68.312543,49.7138094 81.2861883,49.7138094 C94.2598335,49.7138094 104.777051,39.1811806 104.777051,26.1885246 C104.777051,13.1958686 94.2598335,2.66323979 81.2861883,2.66323979 Z" id="Oval-Copy-3" fill="url(#linearGradient-1)"></path>
            <path d="M35.4754876,28.5387184 C49.7793069,28.5387184 61.3748435,40.1320256 61.3748435,54.4330948 C61.3748435,68.734164 49.7793069,80.3274712 35.4754876,80.3274712 C21.1716683,80.3274712 9.57613169,68.734164 9.57613169,54.4330948 C9.57613169,40.1320256 21.1716683,28.5387184 35.4754876,28.5387184 Z M35.4754876,31.1720448 C22.626294,31.1720448 12.2099645,41.5863716 12.2099645,54.4330948 C12.2099645,67.279818 22.626294,77.6941448 35.4754876,77.6941448 C48.3246812,77.6941448 58.7410107,67.279818 58.7410107,54.4330948 C58.7410107,41.5863716 48.3246812,31.1720448 35.4754876,31.1720448 Z" id="Oval-Copy-7" fill="url(#linearGradient-2)" transform="translate(35.475488, 54.433095) rotate(-30.000000) translate(-35.475488, -54.433095) "></path>
            <path d="M49.9234558,20.1929388 C64.2272751,20.1929388 75.8228117,31.786246 75.8228117,46.0873152 C75.8228117,60.3883844 64.2272751,71.9816917 49.9234558,71.9816917 C35.6196365,71.9816917 24.0240999,60.3883844 24.0240999,46.0873152 C24.0240999,31.786246 35.6196365,20.1929388 49.9234558,20.1929388 Z M49.9234558,22.8262652 C37.0742622,22.8262652 26.6579327,33.2405921 26.6579327,46.0873152 C26.6579327,58.9340384 37.0742622,69.3483652 49.9234558,69.3483652 C62.7726494,69.3483652 73.1889789,58.9340384 73.1889789,46.0873152 C73.1889789,33.2405921 62.7726494,22.8262652 49.9234558,22.8262652 Z" id="Oval-Copy-8" fill="url(#linearGradient-2)" transform="translate(49.923456, 46.087315) rotate(-30.000000) translate(-49.923456, -46.087315) "></path>
            <polygon id="F" fill="#3C4B55" transform="translate(42.896037, 50.339394) rotate(-30.000000) translate(-42.896037, -50.339394) " points="38.0106372 63.0123142 38.013313 50.831898 49.6402611 50.8293385 49.6407237 48.7232146 38.0137757 48.7257741 38.0157421 39.7747478 50.0642109 39.7720955 50.0646736 37.6659717 35.7329672 37.6691266 35.7273997 63.0128168"></polygon>
            <path d="M129.016669,19.3010344 C143.320489,19.3010344 154.916025,30.8943416 154.916025,45.1954109 C154.916025,59.4964801 143.320489,71.0897873 129.016669,71.0897873 C114.71285,71.0897873 103.117313,59.4964801 103.117313,45.1954109 C103.117313,30.8943416 114.71285,19.3010344 129.016669,19.3010344 Z M129.016669,21.9343608 C116.167476,21.9343608 105.751146,32.3486877 105.751146,45.1954109 C105.751146,58.042134 116.167476,68.4564609 129.016669,68.4564609 C141.865863,68.4564609 152.282192,58.042134 152.282192,45.1954109 C152.282192,32.3486877 141.865863,21.9343608 129.016669,21.9343608 Z" id="Oval-Copy-5" fill="url(#linearGradient-2)" transform="translate(129.016669, 45.195411) rotate(-690.000000) translate(-129.016669, -45.195411) "></path>
            <path d="M143.464638,27.646814 C157.768457,27.646814 169.363993,39.2401212 169.363993,53.5411904 C169.363993,67.8422596 157.768457,79.4355668 143.464638,79.4355668 C129.160818,79.4355668 117.565282,67.8422596 117.565282,53.5411904 C117.565282,39.2401212 129.160818,27.646814 143.464638,27.646814 Z M143.464638,30.2801404 C130.615444,30.2801404 120.199114,40.6944672 120.199114,53.5411904 C120.199114,66.3879136 130.615444,76.8022404 143.464638,76.8022404 C156.313831,76.8022404 166.730161,66.3879136 166.730161,53.5411904 C166.730161,40.6944672 156.313831,30.2801404 143.464638,30.2801404 Z" id="Oval-Copy-6" fill="url(#linearGradient-2)" transform="translate(143.464638, 53.541190) rotate(-690.000000) translate(-143.464638, -53.541190) "></path>
            <polygon id="L" fill="#3C4B55" transform="translate(137.977595, 49.966330) rotate(-690.000000) translate(-137.977595, -49.966330) " points="145.497499 62.6398304 145.497036 60.5337065 132.746033 60.5308996 132.740928 37.2933331 130.45769 37.2928305 130.463258 62.6365208"></polygon>
            <path d="M97.4919496,0 C111.934309,0 123.642155,11.7250018 123.642155,26.1885246 C123.642155,40.6520473 111.934309,52.3770492 97.4919496,52.3770492 C83.0495897,52.3770492 71.3417438,40.6520473 71.3417438,26.1885246 C71.3417438,11.7250018 83.0495897,0 97.4919496,0 Z M97.4919496,2.66323979 C84.5183043,2.66323979 74.0010868,13.1958686 74.0010868,26.1885246 C74.0010868,39.1811806 84.5183043,49.7138094 97.4919496,49.7138094 C110.465595,49.7138094 120.982812,39.1811806 120.982812,26.1885246 C120.982812,13.1958686 110.465595,2.66323979 97.4919496,2.66323979 Z" id="Oval-Copy-4" fill="url(#linearGradient-1)"></path>
            <path d="M88.27669,38.3606557 C93.2396114,38.3606557 97.8602623,36.665504 97.8602623,31.1209452 C97.8602623,22.3273457 83.8956283,25.6117021 83.8956283,18.3719916 C83.8956283,15.2642135 87.0787434,13.9222183 89.6457717,13.9222183 C92.178573,13.9222183 94.9509636,14.7344785 95.0194177,17.8775724 L97.4153108,17.8775724 C96.8676781,12.9686955 92.6235246,11.8032787 89.3719554,11.8032787 C85.4700724,11.8032787 81.4997353,14.2400593 81.4997353,18.6898326 C81.4997353,24.1990757 87.5921491,25.5057551 91.5967133,26.8830659 C93.684563,27.5893791 95.4643692,28.7901116 95.4643692,31.3328392 C95.4643692,34.58188 92.2812541,36.2417161 89.5088636,36.2417161 C86.1888403,36.2417161 83.3822227,35.1116149 83.3137686,31.1915766 L80.9178755,31.1915766 C81.0205566,35.3941402 84.3405799,38.3606557 88.27669,38.3606557 Z" id="S" fill="#3C4B55"></path>
        </g>
        <g id="Group-16-Copy" transform="translate(147.000000, 1.000000)">
            <path d="M89.7527473,45 C89.7527473,69.8528571 69.716303,90 45,90 C20.283697,90 0.247252747,69.8528571 0.247252747,45 C0.247252747,20.1471429 20.283697,0 45,0 C69.716303,0 89.7527473,20.1471429 89.7527473,45" id="Fill-1" fill="#ECECEC"></path>
            <path d="M11.6870791,73.7087325 C4.31281413,50.0178948 4.37939175,39.6526833 11.6870791,16.14667 C18.4526344,11.50027 21.9294661,9.50481092 28.9285714,6.96132597 C28.3684739,10.4095909 28.119072,12.1224406 27.6826187,15.5277231 C22.0816435,17.0998053 19.2991214,18.203379 13.8439829,20.7726534 C11.6152176,29.2208489 10.9726906,33.0892671 10.5859063,40.8508183 C16.2566294,40.3855336 19.1596254,40.1835162 25.0142296,39.8826392 C24.9360273,43.1793912 24.927573,44.8223943 24.9782988,48.1180717 C19.1131267,47.9267999 16.2048468,47.7978526 10.5246126,47.5023485 C10.8754661,58.5327131 11.9512761,63.9678406 16.0473854,76.5745856 C14.2941745,75.4860557 13.4212678,74.9100913 11.6870791,73.7087325" id="Fill-3" fill="#3C4B55"></path>
            <path d="M35.6911919,61.3853961 C35.7210716,62.3123939 35.7370786,62.7775004 35.7712268,63.7055699 C36.1692672,74.538049 39.794316,78.461447 42.9370209,78.5214607 C46.8245842,78.6114813 50.215931,74.4673186 50.1817827,65.2016266 C50.119889,48.2906135 30.5220025,44.727298 31.5934035,25.804753 C32.3382619,12.0658945 37.981258,3.03168403 43.9315883,2.98342541 C50.4208204,2.96416858 54.9742743,11.3285829 55.2837427,27.2654445 C53.0769129,27.046823 51.9692295,26.9621608 49.7527955,26.8453483 C49.6460823,18.0565512 48.1008745,11.9512254 43.4684528,11.9790889 C40.5391744,12.0090957 36.8458291,16.1136065 37.0123018,24.1640204 C37.3548513,40.6131421 56.7457141,44.7776666 55.5814727,64.2992772 C54.6509332,80.5844328 48.8489344,87.6531934 43.0480026,87.5117325 C32.6797443,86.9951857 30.6852738,68.1412279 30.4120879,60.9192179 C32.5186073,61.1453411 33.5761355,61.2396484 35.6911919,61.3853961" id="Fill-5" fill="#3C4B55"></path>
            <path d="M61.0714286,82.5414365 C65.4886616,57.3450629 65.2490829,33.1478909 61.0714286,7.9558011 C62.8864514,8.65513515 63.7902195,9.04603396 65.5924078,9.89851466 C69.6128385,32.6102711 70.1337083,50.0893383 67.1924515,72.4733824 C72.7487531,70.3935865 75.4953522,69.0645306 80.8516484,66.1665246 C79.9756886,68.8021464 79.4740706,70.1601182 78.3392802,72.9810154 C71.5797372,77.7157103 68.0983586,79.7965771 61.0714286,82.5414365" id="Fill-7" fill="#3C4B55"></path>
        </g>
        <path d="M424.997779,71.6131199 C439.119615,92.045859 467.138302,97.1315452 487.570938,83.0096386 C508.003574,68.887732 513.151617,40.8791305 499.030804,20.4474141 C484.883402,-0.023163362 456.839149,-5.14566536 436.406512,8.97624123 C415.972854,23.0981478 410.850377,51.1425424 424.997779,71.6131199 Z M430.193425,30.8342541 L437.883978,41.7548991 C433.889279,46.2162821 430.451518,51.0632926 427.727432,56.1933702 C425.364886,47.7300754 426.322025,38.7119283 430.193425,30.8342541 Z M431.917127,65.6316275 C434.120372,59.5784294 437.26654,53.8721137 441.349447,48.7348066 L451.309392,62.9204683 C444.98408,64.8638207 438.448543,65.7421836 431.917127,65.6316275 Z M489.099448,69.1395269 C487.077482,71.3956516 484.789685,73.5112141 482.167288,75.3089839 C479.545917,77.1067536 476.743904,78.4838555 473.901863,79.5635359 L465.232044,67.1135982 C467.944762,65.6886237 470.606162,64.1892939 473.189556,62.4180069 C475.773977,60.6457013 478.127462,58.7043136 480.429629,56.6906077 L489.099448,69.1395269 Z M493.302047,61.1657459 L485.618785,50.2455425 C489.610239,45.78434 493.044163,40.9364999 495.76708,35.8066298 C498.126663,44.2695823 497.209976,53.2617257 493.302047,61.1657459 Z M457.252776,70.1160221 L464.734807,80.9047375 C456.060165,81.6909925 447.404841,79.3839015 440.370166,74.2854026 C446.063789,73.6055352 451.742162,72.1819679 457.252776,70.1160221 Z M491.088398,25.3740496 C488.885153,31.4265422 485.738985,37.1331491 481.656077,42.2707182 L471.696133,28.0853472 C478.021445,26.1418956 484.556982,25.2624736 491.088398,25.3740496 Z M463.101977,31.8287293 L475.176796,49.1882381 C472.888078,51.2509671 470.54882,53.2419667 467.952739,55.0239268 C465.356658,56.8069116 462.61721,58.304004 459.903548,59.6740331 L447.828729,42.3165737 C450.078253,40.277413 452.455673,38.2618204 455.051754,36.4788356 C457.648867,34.6958508 460.349121,33.2264254 463.101977,31.8287293 Z M483.132597,17.7117959 C477.438194,18.3921201 471.760059,19.8176579 466.249675,21.8839779 L458.767956,11.0880133 C467.405635,10.3265774 476.097199,12.6098712 483.132597,17.7117959 Z M458.270718,24.8853832 C455.558,26.3113763 452.896601,27.8096875 450.31218,29.5819931 C447.728786,31.3542987 445.374274,33.2946678 443.072107,35.3093923 L434.403315,22.8604731 C436.424254,20.6033299 438.713078,18.4887859 441.334448,16.6910161 C443.956845,14.8932464 446.758858,13.515126 449.6009,12.4364641 L458.270718,24.8853832 Z" id="Stroke-11" stroke="#95CAE7"></path>
        <g id="Group-3" transform="translate(0.000000, 23.000000)" stroke-linecap="square">
            <g id="Line-2">
                <use fill="black" fill-opacity="1" filter="url(#filter-4)" xlink:href="#path-3"></use>
                <use stroke="#FFFFFF" stroke-width="3" xlink:href="#path-3"></use>
            </g>
            <g id="Line-2-Copy">
                <use fill="black" fill-opacity="1" filter="url(#filter-6)" xlink:href="#path-5"></use>
                <use stroke="#FFFFFF" stroke-width="3" xlink:href="#path-5"></use>
            </g>
            <g id="Line-2-Copy-2">
                <use fill="black" fill-opacity="1" filter="url(#filter-8)" xlink:href="#path-7"></use>
                <use stroke="#FFFFFF" stroke-width="3" xlink:href="#path-7"></use>
            </g>
        </g>
        <g id="Fulfilment-Services" fill-rule="nonzero" fill="#FFFFFF" fill-opacity="1">
            <use filter="url(#filter-10)" xlink:href="#text-9"></use>
            <use xlink:href="#text-9"></use>
        </g>
    </g>
</svg>